Wykrywanie fraudów w sieci Ethereum
…
4.1 Analiza braków danych

Kod

missing_summary <- df_clean %>%
  summarise(across(everything(), ~sum(is.na(.)))) %>%
  pivot_longer(everything(), names_to = "variable", values_to = "missing") %>%
  filter(missing > 0) %>%
  arrange(desc(missing)) %>%
  mutate(pct = round(missing / nrow(df_clean) * 100, 1))

missing_summary

# A tibble: 23 × 3
   variable                        missing   pct
   <chr>                             <int> <dbl>
 1 total_erc20_tnxs                    829   8.4
 2 erc20_total_ether_received          829   8.4
 3 erc20_total_ether_sent              829   8.4
 4 erc20_total_ether_sent_contract     829   8.4
 5 erc20_uniq_sent_addr                829   8.4
 6 erc20_uniq_rec_addr                 829   8.4
 7 erc20_uniq_sent_addr_1              829   8.4
 8 erc20_uniq_rec_contract_addr        829   8.4
 9 erc20_avg_time_between_sent_tnx     829   8.4
10 erc20_avg_time_between_rec_tnx      829   8.4
# ℹ 13 more rows
…
